01 단어 빈도 분석
…
raw_moon <- readLines("speech_moon.txt", encoding = "UTF-8")

기본적인 전처리

library(stringr)

moon <- raw_moon %>%
  str_replace_all("[^가-힣]", " ") %>%  # 한글만 남기기
  str_squish() %>%                      # 중복 공백 제거
  as_tibble()                           # tibble로 변환

moon

## # A tibble: 117 x 1
##    value                                                                        
##    <chr>                                                                        
##  1 "정권교체 하겠습니다"                                                        
##  2 "정치교체 하겠습니다"                                                        
##  3 "시대교체 하겠습니다"                                                        
##  4 ""                                                                           
##  5 "불비불명 이라는 고사가 있습니다 남쪽 언덕 나뭇가지에 앉아 년 동안 날지도 울~
##  6 ""                                                                           
##  7 "그 동안 정치와 거리를 둬 왔습니다 그러나 암울한 시대가 저를 정치로 불러냈습~
##  8 ""                                                                           
##  9 ""                                                                           
## 10 "우리나라 대통령 이 되겠습니다"                                              
## # ... with 107 more rows

명사 기준 토큰화

word_noun <- moon %>%
  unnest_tokens(input = value,
                output = word,
                token = extractNoun)

word_noun

## # A tibble: 1,786 x 1
##    word      
##    <chr>     
##  1 "정권교체"
##  2 "하겠습니"
##  3 "정치"    
##  4 "교체"    
##  5 "하겠습니"
##  6 "시대"    
##  7 "교체"    
##  8 "하겠습니"
##  9 ""        
## 10 "불비불명"
## # ... with 1,776 more rows

단어 빈도 구하기

빈도가 높은 명사를 보면 글쓴이가 무엇을 강조했는지 알 수 있음

# A tibble: 704 x 2: 연설문이 704개의 명사로 구성됨

word_noun <- word_noun %>%
  count(word, sort = T) %>%    # 단어 빈도 구해 내림차순 정렬
  filter(str_count(word) > 1)  # 두 글자 이상만 남기기

word_noun

## # A tibble: 722 x 2
##    word       n
##    <chr>  <int>
##  1 국민      21
##  2 일자리    21
##  3 나라      18
##  4 우리      17
##  5 경제      15
##  6 사회      15
##  7 대통령    12
##  8 성장      12
##  9 대한      11
## 10 민국      11
## # ... with 712 more rows

명사 추출

moon %>%
  unnest_tokens(input = value,
                output = word,
                token = extractNoun) %>% #<< 
  count(word, sort = T) %>%
  filter(str_count(word) > 1)

## # A tibble: 722 x 2
##    word       n
##    <chr>  <int>
##  1 국민      21
##  2 일자리    21
##  3 나라      18
##  4 우리      17
##  5 경제      15
##  6 사회      15
##  7 대통령    12
##  8 성장      12
##  9 대한      11
## 10 민국      11
## # ... with 712 more rows
…
원문 raw_moon을 문장 기준으로 토큰화

sentences_moon <- raw_moon %>%
  str_squish() %>%
  as_tibble() %>%
  unnest_tokens(input = value,
                output = sentence,
                token = "sentences") #<<

sentences_moon

문장으로 토큰화할 때는 마침표가 문장의 기준점이 되므로 특수 문자 제거 X

## # A tibble: 207 x 1
##    sentence                                                               
##    <chr>                                                                  
##  1 정권교체 하겠습니다!                                                   
##  2 정치교체 하겠습니다!                                                   
##  3 시대교체 하겠습니다!                                                   
##  4 ‘불비불명(不飛不鳴)’이라는 고사가 있습니다.                            
##  5 남쪽 언덕 나뭇가지에 앉아, 3년 동안 날지도 울지도 않는 새.             
##  6 그러나 그 새는 한번 날면 하늘 끝까지 날고, 한번 울면 천지를 뒤흔듭니다.
##  7 그 동안 정치와 거리를 둬 왔습니다.                                     
##  8 그러나 암울한 시대가 저를 정치로 불러냈습니다.                         
##  9 더 이상 남쪽 나뭇가지에 머무를 수 없었습니다.                          
## 10 이제 저는 국민과 함께 높이 날고 크게 울겠습니다.                       
## # ... with 197 more rows
…
